(module elongateLabelMask (layer F.Cu) (tedit 5D27A3F0)
  (fp_text reference G*** (at 0 0) (layer F.SilkS) hide
    (effects (font (size 1.524 1.524) (thickness 0.3)))
  )
  (fp_text value LOGO (at 0.75 0) (layer F.SilkS) hide
    (effects (font (size 1.524 1.524) (thickness 0.3)))
  )
  (fp_poly (pts (xy -4.791907 -5.998546) (xy -4.57223 -5.998545) (xy -4.347933 -5.998542) (xy -4.118992 -5.998537)
    (xy -3.88538 -5.998532) (xy -3.647069 -5.998525) (xy -3.404035 -5.998517) (xy -3.15625 -5.998507)
    (xy -2.903688 -5.998496) (xy -2.646323 -5.998484) (xy -2.384129 -5.998471) (xy -2.117078 -5.998456)
    (xy -1.845146 -5.99844) (xy -1.568304 -5.998423) (xy -1.286528 -5.998404) (xy -0.99979 -5.998384)
    (xy -0.708065 -5.998363) (xy -0.411325 -5.998341) (xy -0.109545 -5.998317) (xy 0.036826 -5.998306)
    (xy 0.317928 -5.998283) (xy 0.593996 -5.99826) (xy 0.865075 -5.998238) (xy 1.131212 -5.998216)
    (xy 1.392451 -5.998194) (xy 1.648838 -5.998172) (xy 1.900418 -5.998151) (xy 2.147238 -5.998129)
    (xy 2.389342 -5.998108) (xy 2.626777 -5.998087) (xy 2.859587 -5.998065) (xy 3.087818 -5.998044)
    (xy 3.311517 -5.998023) (xy 3.530727 -5.998002) (xy 3.745495 -5.997981) (xy 3.955866 -5.997959)
    (xy 4.161886 -5.997938) (xy 4.363601 -5.997916) (xy 4.561055 -5.997895) (xy 4.754294 -5.997873)
    (xy 4.943365 -5.997851) (xy 5.128312 -5.997829) (xy 5.30918 -5.997806) (xy 5.486016 -5.997784)
    (xy 5.658865 -5.997761) (xy 5.827772 -5.997738) (xy 5.992783 -5.997714) (xy 6.153944 -5.997691)
    (xy 6.3113 -5.997667) (xy 6.464896 -5.997642) (xy 6.614778 -5.997617) (xy 6.760991 -5.997592)
    (xy 6.903582 -5.997566) (xy 7.042595 -5.99754) (xy 7.178076 -5.997513) (xy 7.310071 -5.997486)
    (xy 7.438625 -5.997458) (xy 7.563784 -5.99743) (xy 7.685592 -5.997401) (xy 7.804097 -5.997371)
    (xy 7.919342 -5.997341) (xy 8.031374 -5.997311) (xy 8.140239 -5.997279) (xy 8.245981 -5.997247)
    (xy 8.348646 -5.997214) (xy 8.44828 -5.997181) (xy 8.544929 -5.997146) (xy 8.638637 -5.997111)
    (xy 8.72945 -5.997075) (xy 8.817414 -5.997039) (xy 8.902575 -5.997001) (xy 8.984977 -5.996963)
    (xy 9.064667 -5.996923) (xy 9.141689 -5.996883) (xy 9.21609 -5.996842) (xy 9.287915 -5.9968)
    (xy 9.35721 -5.996757) (xy 9.424019 -5.996712) (xy 9.488389 -5.996667) (xy 9.550364 -5.996621)
    (xy 9.609992 -5.996574) (xy 9.667316 -5.996525) (xy 9.722383 -5.996476) (xy 9.775237 -5.996425)
    (xy 9.825926 -5.996373) (xy 9.874493 -5.99632) (xy 9.920985 -5.996266) (xy 9.965447 -5.996211)
    (xy 10.007925 -5.996154) (xy 10.048464 -5.996096) (xy 10.087109 -5.996037) (xy 10.123907 -5.995976)
    (xy 10.158902 -5.995914) (xy 10.192141 -5.995851) (xy 10.223668 -5.995786) (xy 10.25353 -5.99572)
    (xy 10.281771 -5.995653) (xy 10.308437 -5.995584) (xy 10.333575 -5.995513) (xy 10.357228 -5.995441)
    (xy 10.379444 -5.995368) (xy 10.400267 -5.995293) (xy 10.419742 -5.995216) (xy 10.437916 -5.995138)
    (xy 10.454834 -5.995058) (xy 10.470541 -5.994977) (xy 10.485084 -5.994894) (xy 10.498506 -5.994809)
    (xy 10.510855 -5.994722) (xy 10.522175 -5.994634) (xy 10.532512 -5.994544) (xy 10.541911 -5.994452)
    (xy 10.550419 -5.994359) (xy 10.55808 -5.994264) (xy 10.56494 -5.994166) (xy 10.571045 -5.994067)
    (xy 10.57644 -5.993966) (xy 10.58117 -5.993864) (xy 10.585281 -5.993759) (xy 10.58882 -5.993652)
    (xy 10.59183 -5.993543) (xy 10.594358 -5.993433) (xy 10.596449 -5.99332) (xy 10.598149 -5.993205)
    (xy 10.599503 -5.993088) (xy 10.59963 -5.993076) (xy 10.681089 -5.983362) (xy 10.758876 -5.971046)
    (xy 10.833792 -5.955936) (xy 10.906637 -5.93784) (xy 10.97821 -5.916564) (xy 11.049312 -5.891918)
    (xy 11.09615 -5.8738) (xy 11.181726 -5.836647) (xy 11.26514 -5.79492) (xy 11.346417 -5.748604)
    (xy 11.425581 -5.697684) (xy 11.502654 -5.642145) (xy 11.577661 -5.581973) (xy 11.618068 -5.546876)
    (xy 11.632907 -5.53323) (xy 11.650336 -5.516546) (xy 11.669593 -5.497604) (xy 11.689917 -5.477183)
    (xy 11.710549 -5.456062) (xy 11.730726 -5.435021) (xy 11.749689 -5.414841) (xy 11.766676 -5.3963)
    (xy 11.780926 -5.380179) (xy 11.782249 -5.378638) (xy 11.844087 -5.302539) (xy 11.901791 -5.22352)
    (xy 11.955278 -5.141729) (xy 12.004466 -5.057311) (xy 12.04927 -4.970413) (xy 12.089608 -4.881181)
    (xy 12.125397 -4.789761) (xy 12.138822 -4.751427) (xy 12.164457 -4.670376) (xy 12.186295 -4.589724)
    (xy 12.204518 -4.508559) (xy 12.219309 -4.42597) (xy 12.230853 -4.341043) (xy 12.239331 -4.252868)
    (xy 12.239532 -4.250265) (xy 12.239681 -4.245784) (xy 12.239827 -4.236326) (xy 12.239969 -4.221994)
    (xy 12.240109 -4.20289) (xy 12.240245 -4.179117) (xy 12.240379 -4.150776) (xy 12.240509 -4.117972)
    (xy 12.240636 -4.080806) (xy 12.240761 -4.039381) (xy 12.240882 -3.993799) (xy 12.241 -3.944164)
    (xy 12.241115 -3.890577) (xy 12.241227 -3.833141) (xy 12.241336 -3.771959) (xy 12.241442 -3.707133)
    (xy 12.241545 -3.638766) (xy 12.241644 -3.56696) (xy 12.241741 -3.491818) (xy 12.241835 -3.413442)
    (xy 12.241925 -3.331936) (xy 12.242013 -3.247401) (xy 12.242097 -3.15994) (xy 12.242179 -3.069656)
    (xy 12.242257 -2.97665) (xy 12.242332 -2.881027) (xy 12.242405 -2.782888) (xy 12.242474 -2.682336)
    (xy 12.24254 -2.579473) (xy 12.242603 -2.474402) (xy 12.242663 -2.367226) (xy 12.24272 -2.258046)
    (xy 12.242774 -2.146967) (xy 12.242825 -2.034089) (xy 12.242873 -1.919516) (xy 12.242918 -1.803351)
    (xy 12.242959 -1.685695) (xy 12.242998 -1.566651) (xy 12.243034 -1.446323) (xy 12.243066 -1.324812)
    (xy 12.243096 -1.20222) (xy 12.243123 -1.078652) (xy 12.243146 -0.954209) (xy 12.243167 -0.828993)
    (xy 12.243184 -0.703107) (xy 12.243198 -0.576654) (xy 12.24321 -0.449737) (xy 12.243218 -0.322457)
    (xy 12.243223 -0.194918) (xy 12.243226 -0.067222) (xy 12.243225 0.060528) (xy 12.243221 0.188231)
    (xy 12.243214 0.315783) (xy 12.243204 0.443082) (xy 12.243191 0.570025) (xy 12.243175 0.69651)
    (xy 12.243156 0.822434) (xy 12.243134 0.947694) (xy 12.243109 1.072189) (xy 12.243081 1.195815)
    (xy 12.24305 1.31847) (xy 12.243016 1.440051) (xy 12.242979 1.560457) (xy 12.242939 1.679583)
    (xy 12.242896 1.797329) (xy 12.242849 1.91359) (xy 12.2428 2.028266) (xy 12.242748 2.141252)
    (xy 12.242693 2.252447) (xy 12.242634 2.361748) (xy 12.242573 2.469052) (xy 12.242509 2.574258)
    (xy 12.242441 2.677261) (xy 12.242371 2.777961) (xy 12.242297 2.876253) (xy 12.242221 2.972037)
    (xy 12.242141 3.065208) (xy 12.242059 3.155665) (xy 12.241974 3.243305) (xy 12.241885 3.328026)
    (xy 12.241794 3.409725) (xy 12.241699 3.488299) (xy 12.241601 3.563645) (xy 12.241501 3.635662)
    (xy 12.241397 3.704247) (xy 12.241291 3.769297) (xy 12.241181 3.83071) (xy 12.241069 3.888382)
    (xy 12.240953 3.942212) (xy 12.240834 3.992098) (xy 12.240713 4.037935) (xy 12.240588 4.079623)
    (xy 12.240461 4.117057) (xy 12.24033 4.150137) (xy 12.240196 4.178759) (xy 12.24006 4.20282)
    (xy 12.23992 4.222219) (xy 12.239777 4.236852) (xy 12.239632 4.246617) (xy 12.239483 4.251411)
    (xy 12.239474 4.251534) (xy 12.229322 4.353731) (xy 12.214519 4.453892) (xy 12.195057 4.552046)
    (xy 12.170925 4.648219) (xy 12.142116 4.742441) (xy 12.10862 4.834738) (xy 12.070427 4.925138)
    (xy 12.02753 5.013669) (xy 11.979918 5.100359) (xy 11.940384 5.165329) (xy 11.890164 5.240085)
    (xy 11.835712 5.312949) (xy 11.777449 5.383469) (xy 11.715799 5.451195) (xy 11.651184 5.515676)
    (xy 11.584027 5.576461) (xy 11.51475 5.633099) (xy 11.472033 5.665128) (xy 11.393175 5.719234)
    (xy 11.312476 5.768609) (xy 11.229977 5.813242) (xy 11.145715 5.853116) (xy 11.05973 5.888219)
    (xy 10.972061 5.918536) (xy 10.882747 5.944054) (xy 10.791827 5.964759) (xy 10.69934 5.980636)
    (xy 10.605324 5.991673) (xy 10.542486 5.996297) (xy 10.538913 5.996355) (xy 10.530325 5.996413)
    (xy 10.516788 5.99647) (xy 10.498365 5.996526) (xy 10.475122 5.996581) (xy 10.447122 5.996636)
    (xy 10.414432 5.99669) (xy 10.377114 5.996743) (xy 10.335234 5.996795) (xy 10.288857 5.996846)
    (xy 10.238047 5.996897) (xy 10.182868 5.996946) (xy 10.123385 5.996995) (xy 10.059664 5.997043)
    (xy 9.991768 5.997091) (xy 9.919761 5.997137) (xy 9.84371 5.997183) (xy 9.763677 5.997228)
    (xy 9.679729 5.997272) (xy 9.591929 5.997316) (xy 9.500342 5.997358) (xy 9.405033 5.9974)
    (xy 9.306066 5.997441) (xy 9.203506 5.997481) (xy 9.097417 5.997521) (xy 8.987865 5.997559)
    (xy 8.874913 5.997597) (xy 8.758626 5.997634) (xy 8.63907 5.99767) (xy 8.516308 5.997706)
    (xy 8.390405 5.997741) (xy 8.261426 5.997774) (xy 8.129435 5.997808) (xy 7.994497 5.99784)
    (xy 7.856677 5.997871) (xy 7.716039 5.997902) (xy 7.572647 5.997932) (xy 7.426567 5.997961)
    (xy 7.277863 5.99799) (xy 7.1266 5.998018) (xy 6.972842 5.998044) (xy 6.816653 5.998071)
    (xy 6.658099 5.998096) (xy 6.497244 5.99812) (xy 6.334153 5.998144) (xy 6.168889 5.998167)
    (xy 6.001519 5.99819) (xy 5.832106 5.998211) (xy 5.660715 5.998232) (xy 5.487411 5.998252)
    (xy 5.312258 5.998271) (xy 5.135321 5.998289) (xy 4.956664 5.998307) (xy 4.776353 5.998324)
    (xy 4.594451 5.99834) (xy 4.411023 5.998355) (xy 4.226135 5.998369) (xy 4.039849 5.998383)
    (xy 3.852232 5.998396) (xy 3.663348 5.998409) (xy 3.473261 5.99842) (xy 3.282036 5.998431)
    (xy 3.089737 5.998441) (xy 2.896429 5.99845) (xy 2.702178 5.998458) (xy 2.507046 5.998466)
    (xy 2.3111 5.998473) (xy 2.114403 5.998479) (xy 1.91702 5.998484) (xy 1.719016 5.998489)
    (xy 1.520456 5.998493) (xy 1.321403 5.998496) (xy 1.121923 5.998498) (xy 0.92208 5.9985)
    (xy 0.721939 5.998501) (xy 0.521565 5.998501) (xy 0.321021 5.9985) (xy 0.120373 5.998499)
    (xy -0.080315 5.998497) (xy -0.280978 5.998494) (xy -0.481551 5.99849) (xy -0.68197 5.998486)
    (xy -0.882171 5.998481) (xy -1.082089 5.998475) (xy -1.281658 5.998468) (xy -1.480816 5.998461)
    (xy -1.679496 5.998453) (xy -1.877634 5.998444) (xy -2.075166 5.998434) (xy -2.272027 5.998424)
    (xy -2.468153 5.998413) (xy -2.663479 5.998401) (xy -2.85794 5.998389) (xy -3.051471 5.998375)
    (xy -3.244009 5.998361) (xy -3.435488 5.998346) (xy -3.625844 5.998331) (xy -3.815012 5.998315)
    (xy -4.002928 5.998298) (xy -4.189527 5.99828) (xy -4.374744 5.998261) (xy -4.558515 5.998242)
    (xy -4.740776 5.998222) (xy -4.921461 5.998202) (xy -5.100506 5.99818) (xy -5.277846 5.998158)
    (xy -5.453418 5.998135) (xy -5.627155 5.998112) (xy -5.798994 5.998087) (xy -5.96887 5.998062)
    (xy -6.136718 5.998036) (xy -6.302474 5.99801) (xy -6.466074 5.997983) (xy -6.627452 5.997955)
    (xy -6.786543 5.997926) (xy -6.943285 5.997897) (xy -7.09761 5.997867) (xy -7.249456 5.997836)
    (xy -7.398758 5.997804) (xy -7.54545 5.997772) (xy -7.689469 5.997739) (xy -7.83075 5.997705)
    (xy -7.969227 5.997671) (xy -8.104837 5.997635) (xy -8.237515 5.9976) (xy -8.367197 5.997563)
    (xy -8.493816 5.997526) (xy -8.61731 5.997488) (xy -8.737614 5.997449) (xy -8.854662 5.997409)
    (xy -8.968391 5.997369) (xy -9.078735 5.997328) (xy -9.18563 5.997287) (xy -9.289012 5.997244)
    (xy -9.388815 5.997201) (xy -9.484976 5.997158) (xy -9.577429 5.997113) (xy -9.666111 5.997068)
    (xy -9.750955 5.997022) (xy -9.831899 5.996976) (xy -9.908877 5.996928) (xy -9.981824 5.99688)
    (xy -10.050676 5.996832) (xy -10.115369 5.996782) (xy -10.175837 5.996732) (xy -10.232017 5.996681)
    (xy -10.283843 5.99663) (xy -10.331251 5.996578) (xy -10.374176 5.996525) (xy -10.412554 5.996471)
    (xy -10.446321 5.996417) (xy -10.475411 5.996362) (xy -10.499759 5.996306) (xy -10.519302 5.99625)
    (xy -10.533975 5.996193) (xy -10.543713 5.996135) (xy -10.548451 5.996076) (xy -10.548835 5.996062)
    (xy -10.642675 5.988071) (xy -10.735376 5.975154) (xy -10.826811 5.957366) (xy -10.916854 5.934757)
    (xy -11.005378 5.907381) (xy -11.092258 5.87529) (xy -11.177368 5.838537) (xy -11.260581 5.797174)
    (xy -11.34177 5.751254) (xy -11.42081 5.700829) (xy -11.497575 5.645951) (xy -11.571938 5.586674)
    (xy -11.608291 5.555303) (xy -11.641552 5.524833) (xy -11.676213 5.49122) (xy -11.711339 5.45546)
    (xy -11.745998 5.418546) (xy -11.779254 5.381475) (xy -11.810173 5.345242) (xy -11.837822 5.310841)
    (xy -11.838068 5.310524) (xy -11.897098 5.230279) (xy -11.951529 5.147879) (xy -12.001359 5.063328)
    (xy -12.046586 4.976633) (xy -12.087208 4.887797) (xy -12.123223 4.796825) (xy -12.15463 4.703723)
    (xy -12.181427 4.608495) (xy -12.203611 4.511145) (xy -12.221182 4.411679) (xy -12.234137 4.310102)
    (xy -12.239532 4.250265) (xy -12.239679 4.245804) (xy -12.239824 4.236366) (xy -12.239965 4.222054)
    (xy -12.240103 4.20297) (xy -12.240238 4.179217) (xy -12.24037 4.150897) (xy -12.2405 4.118113)
    (xy -12.240626 4.080967) (xy -12.240749 4.039563) (xy -12.240869 3.994001) (xy -12.240987 3.944386)
    (xy -12.241101 3.890819) (xy -12.241212 3.833403) (xy -12.24132 3.77224) (xy -12.241425 3.707434)
    (xy -12.241528 3.639087) (xy -12.241627 3.567301) (xy -12.241723 3.492178) (xy -12.241816 3.413822)
    (xy -12.241906 3.332335) (xy -12.241993 3.24782) (xy -12.242078 3.160378) (xy -12.242159 3.070113)
    (xy -12.242237 2.977127) (xy -12.242312 2.881522) (xy -12.242384 2.783402) (xy -12.242453 2.682869)
    (xy -12.24252 2.580025) (xy -12.242583 2.474972) (xy -12.242643 2.367814) (xy -12.2427 2.258653)
    (xy -12.242754 2.147591) (xy -12.242805 2.034732) (xy -12.242853 1.920177) (xy -12.242899 1.804029)
    (xy -12.242941 1.68639) (xy -12.24298 1.567364) (xy -12.243016 1.447053) (xy -12.243049 1.325559)
    (xy -12.243079 1.202984) (xy -12.243106 1.079433) (xy -12.243131 0.955006) (xy -12.243152 0.829806)
    (xy -12.24317 0.703937) (xy -12.243185 0.5775) (xy -12.243197 0.450598) (xy -12.243206 0.323334)
    (xy -12.243212 0.19581) (xy -12.243215 0.068129) (xy -12.243215 -0.059607) (xy -12.243212 -0.187295)
    (xy -12.243207 -0.314832) (xy -12.243198 -0.442117) (xy -12.243186 -0.569046) (xy -12.243171 -0.695517)
    (xy -12.243153 -0.821428) (xy -12.243132 -0.946675) (xy -12.243108 -1.071157) (xy -12.243081 -1.19477)
    (xy -12.243051 -1.317413) (xy -12.243018 -1.438982) (xy -12.242982 -1.559376) (xy -12.242943 -1.678491)
    (xy -12.242902 -1.796225) (xy -12.242857 -1.912476) (xy -12.242809 -2.02714) (xy -12.242758 -2.140116)
    (xy -12.242704 -2.251301) (xy -12.242647 -2.360592) (xy -12.242587 -2.467887) (xy -12.242524 -2.573083)
    (xy -12.242458 -2.676078) (xy -12.242389 -2.776769) (xy -12.242317 -2.875053) (xy -12.242242 -2.970829)
    (xy -12.242164 -3.063993) (xy -12.242083 -3.154442) (xy -12.241999 -3.242076) (xy -12.241912 -3.32679)
    (xy -12.241822 -3.408482) (xy -12.241729 -3.48705) (xy -12.241633 -3.562392) (xy -12.241534 -3.634403)
    (xy -12.241432 -3.702984) (xy -12.241327 -3.768029) (xy -12.241219 -3.829438) (xy -12.241108 -3.887107)
    (xy -12.240994 -3.940934) (xy -12.240877 -3.990816) (xy -12.240757 -4.036651) (xy -12.240634 -4.078337)
    (xy -12.240508 -4.11577) (xy -12.240379 -4.148848) (xy -12.240247 -4.177469) (xy -12.240112 -4.20153)
    (xy -12.239974 -4.220929) (xy -12.239833 -4.235563) (xy -12.239689 -4.245329) (xy -12.239542 -4.250125)
    (xy -12.239532 -4.250265) (xy -12.22933 -4.352654) (xy -12.214602 -4.452763) (xy -12.195324 -4.550664)
    (xy -12.171473 -4.64643) (xy -12.143025 -4.740132) (xy -12.109955 -4.831843) (xy -12.072241 -4.921634)
    (xy -12.029859 -5.009578) (xy -11.982784 -5.095746) (xy -11.935345 -5.173463) (xy -11.884114 -5.248862)
    (xy -11.828691 -5.322106) (xy -11.769436 -5.392831) (xy -11.706711 -5.46067) (xy -11.640876 -5.525257)
    (xy -11.572294 -5.586227) (xy -11.501324 -5.643214) (xy -11.428328 -5.695852) (xy -11.402893 -5.712837)
    (xy -11.321705 -5.763066) (xy -11.239132 -5.80841) (xy -11.155131 -5.848883) (xy -11.069661 -5.884499)
    (xy -10.982677 -5.915272) (xy -10.894137 -5.941216) (xy -10.803998 -5.962345) (xy -10.712217 -5.978673)
    (xy -10.618751 -5.990215) (xy -10.536136 -5.996368) (xy -10.533019 -5.996448) (xy -10.526759 -5.996527)
    (xy -10.517332 -5.996604) (xy -10.504709 -5.99668) (xy -10.488865 -5.996754) (xy -10.469774 -5.996827)
    (xy -10.447409 -5.996898) (xy -10.421743 -5.996967) (xy -10.392751 -5.997035) (xy -10.360406 -5.997101)
    (xy -10.324682 -5.997166) (xy -10.285551 -5.997229) (xy -10.242989 -5.997291) (xy -10.196969 -5.997351)
    (xy -10.147463 -5.997409) (xy -10.094446 -5.997466) (xy -10.037892 -5.997522) (xy -9.977774 -5.997576)
    (xy -9.914066 -5.997628) (xy -9.84674 -5.997679) (xy -9.775772 -5.997729) (xy -9.701135 -5.997777)
    (xy -9.622802 -5.997823) (xy -9.540746 -5.997868) (xy -9.454942 -5.997911) (xy -9.365363 -5.997953)
    (xy -9.271983 -5.997994) (xy -9.174776 -5.998033) (xy -9.073714 -5.99807) (xy -8.968772 -5.998107)
    (xy -8.859924 -5.998141) (xy -8.747142 -5.998174) (xy -8.630401 -5.998206) (xy -8.509674 -5.998236)
    (xy -8.384935 -5.998265) (xy -8.256157 -5.998293) (xy -8.123315 -5.998318) (xy -7.986381 -5.998343)
    (xy -7.84533 -5.998366) (xy -7.700134 -5.998388) (xy -7.550769 -5.998408) (xy -7.397206 -5.998427)
    (xy -7.23942 -5.998444) (xy -7.077385 -5.998461) (xy -6.911074 -5.998475) (xy -6.740461 -5.998489)
    (xy -6.565519 -5.9985) (xy -6.386223 -5.998511) (xy -6.202545 -5.99852) (xy -6.014459 -5.998528)
    (xy -5.821939 -5.998534) (xy -5.624959 -5.998539) (xy -5.423492 -5.998543) (xy -5.217512 -5.998546)
    (xy -5.006993 -5.998547) (xy -4.791907 -5.998546)) (layer F.Mask) (width 0.01))
)
